%!PS-Adobe-3.0
% watermark.ps
% A. Reuter 2000
% $ApsCVS: src/apsfilter/template/watermark.ps,v 1.2 2000/09/09 07:54:24 andreas Exp $

/wmtext (Watermark) def
/wmfont (Helvetica) def
/wmfontsize 72 def
/wmcolor { 0.5 0.5 0.5 } def


/oshowpage { showpage } bind def

/Watermark { 
 gsave
 currentpagedevice /PageSize get % Seitenmaße bestimmen
 {} forall 

 /pheight exch def
 /pwidth exch def

 wmfont findfont wmfontsize scalefont setfont 

 newpath
 0 0 moveto
 wmtext false charpath pathbbox

 /y1 exch def
 /x1 exch def
 /y0 exch def
 /x0 exch def
 /width x1 x0 sub def
 /height y1 y0 sub def

 newpath
  wmcolor setrgbcolor
  pwidth 2 div pheight 2 div translate

  pheight pwidth atan rotate
  width -2 div height -2 div moveto
  wmtext show
 grestore 
} bind def

/newshowpage {
 oshowpage
 Watermark
} bind def

/showpage { newshowpage } def

Watermark
